<?xml version="1.0" encoding="UTF-8" standalone="no"?>
<!-- Created with Inkscape (http://www.inkscape.org/) -->

<svg
   xmlns:dc="http://purl.org/dc/elements/1.1/"
   xmlns:cc="http://creativecommons.org/ns#"
   xmlns:rdf="http://www.w3.org/1999/02/22-rdf-syntax-ns#"
   xmlns:svg="http://www.w3.org/2000/svg"
   xmlns="http://www.w3.org/2000/svg"
   xmlns:sodipodi="http://sodipodi.sourceforge.net/DTD/sodipodi-0.dtd"
   xmlns:inkscape="http://www.inkscape.org/namespaces/inkscape"
   width="253.3895mm"
   height="285.29617mm"
   viewBox="0 0 253.3895 285.29617"
   version="1.1"
   id="svg1527"
   inkscape:version="0.92.4 (5da689c313, 2019-01-14)"
   sodipodi:docname="red-flag.svg">
  <defs
     id="defs1521" />
  <sodipodi:namedview
     id="base"
     pagecolor="#ffffff"
     bordercolor="#666666"
     borderopacity="1.0"
     inkscape:pageopacity="0.0"
     inkscape:pageshadow="2"
     inkscape:zoom="0.35"
     inkscape:cx="-44.612013"
     inkscape:cy="541.2614"
     inkscape:document-units="mm"
     inkscape:current-layer="layer1"
     showgrid="false"
     inkscape:window-width="1366"
     inkscape:window-height="705"
     inkscape:window-x="-8"
     inkscape:window-y="-8"
     inkscape:window-maximized="1" />
  <metadata
     id="metadata1524">
    <rdf:RDF>
      <cc:Work
         rdf:about="">
        <dc:format>image/svg+xml</dc:format>
        <dc:type
           rdf:resource="http://purl.org/dc/dcmitype/StillImage" />
        <dc:title />
      </cc:Work>
    </rdf:RDF>
  </metadata>
  <g
     inkscape:label="Layer 1"
     inkscape:groupmode="layer"
     id="layer1"
     transform="translate(19.422473,-6.7459136)">
    <path
       style="fill:#800000;stroke-width:0.08116169"
       d="m -15.571573,291.83397 c -0.0955,-0.10912 -0.99848,-1.34862 -2.0105,-2.78064 l -1.8404,-2.60066 0.0382,-15.00386 c 0.019,-8.25205 0.0765,-15.05772 0.11453,-15.1238 0.0382,-0.0729 1.05004,-0.87724 2.2587,-1.80001 l 2.1976,-1.68171 7.2852,-0.0362 7.28524,-0.0362 0.0382,-13.40733 0.0382,-13.40731 4.57408,-4.75758 c 2.51566,-2.61631 9.40073,-9.77907 15.29992,-15.91679 l 10.72586,-11.1594 -0.0573,-4.92465 c -0.019,-2.70858 -0.0765,-25.61723 -0.0955,-50.90813 -0.019,-25.29071 -0.0765,-46.01695 -0.0955,-46.058639 -0.019,-0.03641 -6.3673,-4.877523 -14.08687,-10.746597 -7.71956,-5.869185 -15.73522,-11.963948 -17.81252,-13.544296 -2.07772,-1.579797 -3.89271,-2.935906 -4.03381,-3.012707 l -0.25582,-0.145614 V 38.446264 12.11066 l 0.94884,-0.946425 c 0.5231,-0.520529 1.64757,-1.647133 2.49867,-2.504916 l 1.5502,-1.561589 22.69111,-0.03633 c 18.23062,-0.03633 22.72661,-0.01751 22.87246,0.07281 0.0955,0.05457 1.18749,1.064711 2.41449,2.242655 l 2.23271,2.140899 0.0765,6.561606 c 0.0382,3.608968 0.0765,7.507119 0.0765,8.662484 l 0.003,2.10105 12.6976,-0.01767 12.6978,-0.01752 0.0382,-8.242043 c 0.019,-4.533175 0.0573,-8.248602 0.0573,-8.256606 0.009,-0.01019 1.3001,-1.106585 2.86637,-2.440316 1.56548,-1.334079 2.90854,-2.460683 2.98396,-2.502731 0.0765,-0.03633 10.17239,-0.09104 26.932233,-0.109142 l 26.79494,-0.01752 2.7274,2.2079 2.72757,2.207699 0.0573,3.218375 c 0.0382,1.770903 0.0765,5.666884 0.11453,8.659574 l 0.0573,5.441371 12.53188,0.01767 12.53208,0.01752 0.019,-8.598042 0.019,-8.598406 0.94883,-0.946425 c 0.52119,-0.52053 1.64567,-1.647133 2.49828,-2.504742 l 1.55022,-1.561589 22.6909,-0.03633 c 18.23062,-0.03633 22.72663,-0.01751 22.87268,0.05457 0.0955,0.05457 1.19129,1.068373 2.42383,2.248487 l 2.24227,2.147281 0.0573,8.916192 c 0.019,4.903907 0.0573,16.978955 0.0382,26.833928 l -0.008,17.917738 -0.25583,0.145599 c -0.13372,0.07281 -1.95608,1.432374 -4.0336,3.012707 -2.07771,1.579797 -10.09317,7.67511 -17.81272,13.544181 -7.71937,5.869087 -14.05842,10.704934 -14.08686,10.746611 -0.019,0.03628 -0.0764,20.768105 -0.0955,46.058635 -0.019,25.2909 -0.0764,48.19937 -0.0955,50.90814 l -0.0382,4.92466 10.72586,11.15956 c 5.89918,6.13774 12.78426,13.30029 15.29992,15.91697 l 4.57406,4.75723 0.0382,13.40713 0.0382,13.40751 7.28523,0.0362 7.2852,0.0362 2.1976,1.6817 c 1.20848,0.92459 2.22509,1.7345 2.25869,1.80185 0.0382,0.0729 0.0765,6.87174 0.11469,15.12398 l 0.0382,15.00386 -1.84231,2.60047 c -1.01182,1.43055 -1.89767,2.66381 -1.96774,2.74116 -0.11453,0.1456 -6.07274,0.1456 -122.83699,0.1456 H -15.393183 Z"
       id="Pawn"
       inkscape:connector-curvature="0"
       class="Pawn" />
    <path
       style="fill:#ffffff;fill-opacity:1;stroke:none;stroke-width:0.49803123;stroke-opacity:1"
       d="m 79.566867,191.15325 c -5.27015,-13.7322 -9.17107,-23.21606 -9.54927,-23.21606 -1.13592,0 -1.81939,1.28676 -2.35244,4.42707 -0.28635,1.68898 -0.85908,3.56215 -1.27337,4.16096 -3.16954,4.58958 -17.13287,-6.00776 -17.13287,-13.00272 0,-2.30635 0.78274,-3.10299 4.23597,-4.30622 4.78329,-1.66715 7.92727,-6.33464 7.44443,-11.05165 -0.39137,-3.82462 -1.79458,-5.81556 -8.40245,-11.91834 -7.07693,-6.53666 -8.88562,-9.32843 -9.96831,-15.38642 -1.00229,-5.61154 0.28255,-13.00327 3.20219,-18.42025 l 1.00993,-1.8739 -1.78123,-1.75453 c -3.34229,-3.29463 -3.69645,-4.415954 -3.61034,-11.431488 0.0765,-6.164459 1.15311,-14.265457 2.26022,-17.004251 l 0.55938,-1.381409 4.1972,4.112561 c 5.59566,5.482683 10.98072,11.846268 12.24839,14.473678 1.0061,2.08557 1.04238,4.532255 0.11453,7.592109 -0.26728,0.87907 -0.0382,1.06107 1.65329,1.32498 4.24857,0.66249 11.05422,0.0911 14.7793,-1.24309 0.84576,-0.30212 3.51758,-1.592524 5.93739,-2.867109 2.41963,-1.274012 5.75546,-2.649966 7.41296,-3.057471 3.89366,-0.957348 11.216303,-0.944601 18.967733,0.03628 8.71382,1.097486 17.65579,0.722553 22.72261,-0.955513 2.07694,-0.68797 5.1705,-1.907045 6.87458,-2.710776 1.70485,-0.80445 3.47917,-1.461479 3.94444,-1.461479 1.59221,0 4.19587,3.091334 6.69854,7.955921 3.13479,6.092957 4.4454,10.714757 4.87858,17.203197 0.63957,9.58906 1.92002,13.17398 9.12238,25.55407 9.50381,16.33577 11.91371,27.17519 6.75182,30.36736 -1.29249,0.79899 -1.59221,0.79718 -6.14166,-0.0547 -4.51812,-0.83906 -5.0208,-0.84269 -9.06567,-0.0911 -2.35548,0.43682 -7.51223,1.79457 -11.45953,3.01453 -9.42097,2.9139 -14.252,3.27044 -22.81292,1.68354 -8.32513,-1.54337 -12.45017,-1.48695 -18.45532,0.25301 -4.211733,1.22123 -5.705423,1.41233 -11.050613,1.42507 l -6.18059,0.0149 1.37266,4.11256 c 0.75603,2.26195 3.82493,11.30937 6.82131,20.10561 2.99637,8.79607 5.44807,16.25313 5.44807,16.57128 0,0.31851 -0.17182,0.57877 -0.38374,0.58061 -0.21192,8.9e-4 -2.46067,0.32396 -4.99828,0.71709 -2.53762,0.39312 -4.72929,0.71527 -4.87017,0.71527 -0.13372,1.7e-4 -4.26577,-10.44667 -9.16611,-23.21553 z m -15.95458,-20.55389 c 0.35128,-0.39859 1.16648,-2.49327 1.81178,-4.65495 1.24473,-4.16406 1.2581,-3.99916 -0.7293,-8.79314 l -0.56129,-1.3523 -3.20828,2.03499 c -5.95533,3.77731 -7.05328,4.74776 -7.05328,6.23509 0,1.58708 1.86332,3.8665 4.8005,5.87455 2.2335,1.52701 3.96965,1.75633 4.93891,0.6552 z m 25.77511,-3.83266 c 0.7121,-0.67158 1.09204,-1.58524 4.51415,-10.874 1.65329,-4.48894 2.48912,-5.83139 7.263253,-11.67936 2.54486,-3.11737 3.09164,-5.15708 1.67812,-6.26348 -2.41542,-1.89194 -17.343263,10.05443 -20.966203,16.77893 -1.03475,1.92123 -1.05767,3.78131 -0.0765,6.40599 1.05,2.80797 2.5,4.59287 4.48014,5.51399 2.07331,0.96462 2.20351,0.97009 3.10577,0.12732 z m -11.57159,-4.81508 c 0.17182,-0.1638 -15.21115,-45.95927 -19.06988,-56.76757 -0.15275,-0.42043 -1.06529,-0.28756 -3.31368,0.48415 -2.0038,0.68797 -3.01793,1.28312 -2.85756,1.67988 0.13371,0.33853 4.65901,13.22932 10.04944,28.6476 l 9.80089,28.03334 2.57331,-0.92276 c 1.41465,-0.50778 2.68307,-1.02651 2.81748,-1.15392 z m 88.281983,-4.30476 c 0.65293,-1.62166 -0.25965,-6.1035 -1.60366,-7.87549 -2.93012,-3.86139 -6.85852,-5.75643 -20.42381,-9.85205 -11.15581,-3.36817 -13.82189,-3.85994 -14.81369,-2.73225 -1.12447,1.27767 1.03474,2.92389 8.43529,6.4293 7.60099,3.6004 9.65101,4.84511 15.37935,9.3386 6.22299,4.88135 7.85184,5.78938 10.38468,5.78938 1.81558,0 2.27797,-0.19291 2.6428,-1.09749 z m -45.88736,-9.25363 c 3.39556,-1.33954 4.23674,-4.21684 2.36866,-8.10262 -1.55403,-3.2324 -1.33638,-5.1449 1.01373,-8.9424 3.54392,-5.72366 2.74189,-7.54861 -5.84535,-13.29974 -3.07389,-2.05884 -6.08343,-4.32861 -6.68786,-5.04425 l -1.09965,-1.30133 -3.00648,3.51177 c -6.28658,7.34348 -7.686743,10.92642 -5.36046,13.71744 0.588,0.70617 3.24035,2.48926 5.8929,3.96259 5.73556,3.18598 6.06128,3.79989 4.06185,7.6569 -1.49865,2.88968 -1.44139,5.0124 0.19092,6.75854 1.68767,1.8164 5.41391,2.29143 8.47919,1.08292 z m -62.761183,-15.4128 c -0.006,-0.0729 -1.82703,-5.34638 -4.04333,-11.73289 -3.80145,-10.94991 -4.06549,-11.53031 -4.63059,-10.17839 -2.15445,5.15453 -2.0254,11.58201 0.30354,15.13781 1.68959,2.57828 8.50287,8.09245 8.36999,6.77347 z m 36.19111,-13.57569 c 1.94542,-1.57978 1.34785,-2.89531 -1.98625,-4.36918 -11.62945,-5.14179 -12.53818,-5.6363 -15.77128,-8.5833 -3.75526,-3.42294 -5.48971,-4.26035 -9.07275,-4.37992 -3.12485,-0.10912 -3.70944,0.21658 -3.70944,2.04317 0,3.34668 2.97404,7.22629 7.34575,9.5825 3.55689,1.91723 16.68767,6.05946 21.4622,6.77074 0.19665,0.0362 0.97556,-0.44956 1.73158,-1.06473 z m 38.627733,-4.76541 c 1.00802,-1.10657 4.08648,-4.24378 6.83924,-6.97165 2.75278,-2.72806 5.34825,-5.73476 5.76729,-6.68171 1.67049,-3.77149 0.47537,-8.08226 -2.57064,-9.283684 -1.64948,-0.649732 -2.01032,-0.642462 -3.61264,0.07284 -2.04447,0.915481 -3.36809,3.281714 -8.11626,14.510074 -2.65981,6.28969 -3.40245,9.22632 -2.53915,10.04117 0.87247,0.82265 2.5527,0.14559 4.23216,-1.68901 z M 55.795377,95.38096 c 1.56739,-2.935534 1.4643,-4.731915 -0.43145,-7.4325 -1.49486,-2.130167 -5.81483,-6.133341 -6.61876,-6.133341 -0.60901,0 -2.78999,7.83944 -2.73885,9.84276 0.0765,3.257871 3.68234,6.307541 7.09739,6.013971 1.24855,-0.10912 1.75449,-0.53691 2.69148,-2.29089 z"
       id="path1072"
       inkscape:connector-curvature="0" />
  </g>
</svg>
