<?xml version="1.0" encoding="UTF-8" standalone="no"?>
<!-- Created with Inkscape (http://www.inkscape.org/) -->

<svg
   xmlns:dc="http://purl.org/dc/elements/1.1/"
   xmlns:cc="http://creativecommons.org/ns#"
   xmlns:rdf="http://www.w3.org/1999/02/22-rdf-syntax-ns#"
   xmlns:svg="http://www.w3.org/2000/svg"
   xmlns="http://www.w3.org/2000/svg"
   xmlns:sodipodi="http://sodipodi.sourceforge.net/DTD/sodipodi-0.dtd"
   xmlns:inkscape="http://www.inkscape.org/namespaces/inkscape"
   width="253.3437mm"
   height="285.29666mm"
   viewBox="0 0 253.3437 285.29666"
   version="1.1"
   id="svg1527"
   inkscape:version="0.92.4 (5da689c313, 2019-01-14)"
   sodipodi:docname="red-bomb.svg">
  <defs
     id="defs1521" />
  <sodipodi:namedview
     id="base"
     pagecolor="#ffffff"
     bordercolor="#666666"
     borderopacity="1.0"
     inkscape:pageopacity="0.0"
     inkscape:pageshadow="2"
     inkscape:zoom="0.24748738"
     inkscape:cx="-238.35967"
     inkscape:cy="428.60792"
     inkscape:document-units="mm"
     inkscape:current-layer="layer1"
     showgrid="false"
     inkscape:window-width="1366"
     inkscape:window-height="705"
     inkscape:window-x="-8"
     inkscape:window-y="-8"
     inkscape:window-maximized="1" />
  <metadata
     id="metadata1524">
    <rdf:RDF>
      <cc:Work
         rdf:about="">
        <dc:format>image/svg+xml</dc:format>
        <dc:type
           rdf:resource="http://purl.org/dc/dcmitype/StillImage" />
        <dc:title />
      </cc:Work>
    </rdf:RDF>
  </metadata>
  <g
     inkscape:label="Layer 1"
     inkscape:groupmode="layer"
     id="layer1"
     transform="translate(35.774008,8.0460371)">
    <path
       style="fill:#800000;stroke-width:0.08115514"
       d="m -31.923748,277.0426 c -0.0955,-0.1091 -0.99832,-1.34864 -2.01017,-2.78066 l -1.84009,-2.60064 0.0383,-15.00386 c 0.019,-8.25207 0.0763,-15.05776 0.11447,-15.12383 0.0381,-0.0728 1.04986,-0.87724 2.25831,-1.80002 l 2.19725,-1.68171 7.28405,-0.0364 7.28405,-0.0363 0.0381,-13.40734 0.0381,-13.40732 4.57334,-4.75759 c 2.51525,-2.61631 9.3992,-9.77907 15.29746,-15.9168 l 10.72411,-11.1594 -0.0573,-4.92465 c -0.019,-2.70859 -0.0763,-25.61726 -0.0955,-50.90817 -0.019,-25.290741 -0.0763,-46.016986 -0.0955,-46.05867 -0.019,-0.03632 -6.36646,-4.877517 -14.08457,-10.746601 -7.71831,-5.869085 -15.73266,-11.963851 -17.80985,-13.544196 -2.07715,-1.57979 -3.89188,-2.9359 -4.03293,-3.012711 l -0.25578,-0.145626 V 23.654555 -2.6810691 l 0.94867,-0.9464148 c 0.52301,-0.5205309 1.64539,-1.6471316 2.49827,-2.5049179 l 1.54996,-1.5615927 22.68724,-0.036473 c 18.22787,-0.036324 22.72313,-0.017495 22.86897,0.072824 0.0955,0.054567 1.18728,1.0647294 2.41407,2.2426622 l 2.23237,2.1409013 0.0763,6.5616144 c 0.0381,3.6089637 0.0765,7.5071226 0.0765,8.6624876 l 0.003,2.101043 12.69555,-0.01764 12.69574,-0.01764 0.0381,-8.242046 c 0.019,-4.5331749 0.0573,-8.248604 0.0573,-8.2566075 0.009,-0.010611 1.29991,-1.1065955 2.86591,-2.4403188 1.56522,-1.3340866 2.90809,-2.4606874 2.98348,-2.5027317 0.0954,-0.036473 10.17075,-0.091054 26.92788,-0.109148 l 26.790408,-0.017496 2.72714,2.2078988 2.72714,2.2078812 0.0573,3.21820527 c 0.0381,1.77088803 0.0763,5.66687703 0.11446,8.65974613 l 0.0573,5.4413726 12.52985,0.01764 12.53004,0.0175 0.019,-8.5980576 0.019,-8.5984176 0.94868,-0.9464161 c 0.52111,-0.5205308 1.64539,-1.6471316 2.49748,-2.504737 l 1.54807,-1.5615913 22.68724,-0.036487 c 18.22788,-0.036324 22.72314,-0.017495 22.86898,0.054567 0.0955,0.054567 1.19109,1.0683617 2.42362,2.248482 l 2.24191,2.1472778 0.0573,8.9161969 c 0.0382,4.9039149 0.0573,16.9789789 0.0382,26.8339479 l -0.01,17.917753 -0.25578,0.145627 c -0.13363,0.07282 -1.95578,1.432363 -4.03295,3.012708 -2.07718,1.579806 -10.09154,7.675113 -17.80966,13.544199 -7.71829,5.869085 -14.05634,10.704932 -14.08459,10.7466 -0.019,0.03632 -0.0763,20.768136 -0.0955,46.058677 -0.019,25.29093 -0.0765,48.19939 -0.0955,50.90817 l -0.0383,4.92466 10.72412,11.15958 c 5.89823,6.13772 12.78202,13.30031 15.29745,15.91696 l 4.57313,4.75725 0.0382,13.40714 0.0382,13.40751 7.28406,0.0363 7.28403,0.0363 2.19744,1.68171 c 1.20829,0.92459 2.22473,1.7345 2.25814,1.80185 0.0382,0.0728 0.0763,6.87173 0.11447,15.124 l 0.0382,15.00385 -1.84203,2.60046 c -1.01166,1.43056 -1.89736,2.66383 -1.96741,2.74118 -0.11448,0.14568 -6.07175,0.14568 -122.816918,0.14568 h -122.69208 z"
       id="Pawn-0"
       inkscape:connector-curvature="0"
       class="Pawn" />
    <g
       transform="matrix(5.0504113,0,0,4.815523,-1030.0429,-1653.862)"
       class="currentLayer"
       id="g477">
      <title
         id="title474">Layer 1</title>
      <path
         inkscape:connector-curvature="0"
         style="opacity:1;fill:#ffffff;fill-opacity:1;stroke:none;stroke-width:0.03970329;stroke-opacity:1"
         d="m 226.33922,356.82401 c -0.85549,0.0736 -1.99138,0.53179 -2.94445,2.43591 -0.0244,-0.0456 -0.81905,-1.50432 -2.69876,-2.1697 0.0566,0.072 0.6413,0.91549 -0.62862,3.63383 0,0 -0.70805,-1.5006 -2.66347,-2.62555 -0.59042,2.86027 -0.78782,4.09797 0.16206,6.85303 -0.15122,0.65634 -0.19291,1.27988 0.25483,1.73388 0.36508,0.37016 0.87932,0.76888 0.81683,1.01888 -3.8124,1.16334 -6.55936,4.41709 -6.55936,8.24414 0,4.80215 4.32473,8.69881 9.65279,8.69881 5.32806,0 9.6515,-3.89666 9.6515,-8.69881 0,-3.80886 -2.71941,-7.05028 -6.50316,-8.22765 -0.0354,-0.43505 0.0946,-0.65467 0.72141,-0.92229 0.7905,-0.33748 0.49948,-1.76232 -0.45742,-2.2498 -0.094,-0.0479 -0.2377,-0.10152 -0.42081,-0.15783 0.0144,-0.60012 0.52934,-1.17045 1.04422,-1.60548 0.66566,-0.56248 0.83163,-2.13649 0.41559,-2.77396 -0.41606,-0.63747 -0.47109,-1.43854 0.16728,-3.18741 -0.003,3.1e-4 -0.007,-3e-4 -0.0104,0 z m -4.5245,2.02482 c 0.95691,1.16243 0.74862,2.99913 1.20627,3.03663 0.45765,0.0375 0.70786,-2.09997 1.87279,-2.96242 0.66568,1.53741 1.08108,2.55031 -0.12546,3.48776 -1.20654,0.93745 -1.0946,1.53661 -1.12393,2.21211 -0.0278,0.63966 -0.0821,0.97588 -1.03899,1.08838 -0.95691,0.11249 -1.7482,-1.08812 -1.91462,-2.85053 -0.16641,-1.7624 1.29036,-3.26198 1.12394,-4.01193 z m -3.53648,0.86222 c -1e-5,0 0.62424,0.90047 1.0403,1.91291 0.41604,1.01245 0.20795,2.09954 1.49771,4.01193 -1.3e-4,1.2e-4 -0.002,0.002 -0.002,0.002 -2.6e-4,1.6e-4 -0.002,7e-4 -0.002,0.002 -2.6e-4,1.5e-4 -0.002,7e-4 -0.002,0.002 -6.4e-4,3.1e-4 -0.003,6.9e-4 -0.003,0.002 -0.091,0.0365 -1.0892,0.0545 -2.19952,-1.01771 -1.16493,-1.12494 -1.20566,-2.69947 -0.33195,-4.91186 z m 2.30799,9.03805 c -3.07876,3.29982 -0.20679,3.48115 2.1015,2.75511 2.3019,-0.72404 7.3426,0.33743 7.92507,3.84349 -1.64339,-1.57491 -5.02592,-2.20783 -8.1747,0.73147 -2.91232,2.71861 -7.09363,5.12661 -8.84119,1.23798 -1.24684,-2.7744 0.60299,-8.08058 6.98932,-8.56805 z m 6.86517,11.54933 c -0.89451,2.73735 -4.61819,3.76806 -7.05206,2.17441 1.62258,-0.1875 5.20065,-1.29321 7.05206,-2.17441 z m -11.71117,0.65608 c 0.85289,0.37499 1.58013,0.82411 2.10019,1.64907 -0.93611,-0.13125 -1.80895,-0.78662 -2.10019,-1.64907 z"
         id="path2352"
         data-darkreader-inline-fill=""
         data-darkreader-inline-stroke=""
         class="" />
    </g>
  </g>
</svg>
