<?xml version="1.0" encoding="UTF-8" standalone="no"?>
<!-- Created with Inkscape (http://www.inkscape.org/) -->

<svg
   xmlns:dc="http://purl.org/dc/elements/1.1/"
   xmlns:cc="http://creativecommons.org/ns#"
   xmlns:rdf="http://www.w3.org/1999/02/22-rdf-syntax-ns#"
   xmlns:svg="http://www.w3.org/2000/svg"
   xmlns="http://www.w3.org/2000/svg"
   xmlns:sodipodi="http://sodipodi.sourceforge.net/DTD/sodipodi-0.dtd"
   xmlns:inkscape="http://www.inkscape.org/namespaces/inkscape"
   width="253.43219mm"
   height="285.29642mm"
   viewBox="0 0 253.43219 285.29642"
   version="1.1"
   id="svg1527"
   inkscape:version="0.92.4 (5da689c313, 2019-01-14)"
   sodipodi:docname="yellow-miner.svg">
  <defs
     id="defs1521" />
  <sodipodi:namedview
     id="base"
     pagecolor="#ffffff"
     bordercolor="#666666"
     borderopacity="1.0"
     inkscape:pageopacity="0.0"
     inkscape:pageshadow="2"
     inkscape:zoom="0.175"
     inkscape:cx="-289.28306"
     inkscape:cy="1028.8218"
     inkscape:document-units="mm"
     inkscape:current-layer="layer1"
     showgrid="false"
     inkscape:window-width="1366"
     inkscape:window-height="705"
     inkscape:window-x="-8"
     inkscape:window-y="-8"
     inkscape:window-maximized="1" />
  <metadata
     id="metadata1524">
    <rdf:RDF>
      <cc:Work
         rdf:about="">
        <dc:format>image/svg+xml</dc:format>
        <dc:type
           rdf:resource="http://purl.org/dc/dcmitype/StillImage" />
        <dc:title />
      </cc:Work>
    </rdf:RDF>
  </metadata>
  <g
     inkscape:label="Layer 1"
     inkscape:groupmode="layer"
     id="layer1"
     transform="translate(39.013995,-1.649737)">
    <path
       style="fill:#ffd000;fill-opacity:1;stroke-width:0.08116871"
       d="m -35.162225,286.7379 c -0.0956,-0.10919 -0.99864,-1.34865 -2.01105,-2.78065 l -1.84072,-2.60066 0.0383,-15.00386 c 0.019,-8.25206 0.0764,-15.05773 0.11468,-15.12381 0.0383,-0.0727 1.05019,-0.87724 2.25909,-1.80001 l 2.19796,-1.6817 7.2865,-0.0363 7.28648,-0.0363 0.0382,-13.40731 0.0383,-13.40733 4.57487,-4.75757 c 2.51608,-2.61632 9.4023702,-9.77908 15.30259016,-15.9168 l 10.72771984,-11.1594 -0.0574,-4.92465 c -0.0191,-2.70859 -0.0764,-25.61722 -0.0957,-50.90815 -0.0191,-25.29071 -0.0763,-46.01695 -0.0953,-46.058632 -0.0191,-0.03636 -6.3684198,-4.877523 -14.0893198,-10.746603 -7.7207002,-5.869079 -15.7379402,-11.96385 -17.8156302,-13.544187 -2.07786,-1.5798 -3.89338,-2.93591 -4.03429,-3.012709 l -0.25586,-0.145604 V 33.350112 7.0145116 l 0.94899,-0.9464185 c 0.5232,-0.5205356 1.64596,-1.6471471 2.4989,-2.5049233 l 1.55047,-1.5615925 22.6950702,-0.03636 c 18.2337998,-0.03636 22.7305498,-0.01743 22.8764498,0.07286 0.0953,0.05462 1.18769,1.0647156 2.41489,2.2426466 l 2.2331,2.1409138 0.0764,6.5616003 c 0.0383,3.608967 0.0763,7.507116 0.0763,8.662476 l 0.003,2.101063 12.7,-0.0177 12.6998,-0.01743 0.0383,-8.242053 c 0.019,-4.533168 0.0574,-8.2485986 0.0574,-8.256612 0.0111,-0.00967 1.30035,-1.1065789 2.86686,-2.4403074 1.56577,-1.3340867 2.90906,-2.4606861 2.98466,-2.5027298 0.0957,-0.036369 10.17399,-0.090972 26.93673,-0.1092318 l 26.799615,-0.017428 2.72786,2.2078883 2.72803,2.2077111 0.0574,3.2183725 c 0.0383,1.7709051 0.0764,5.6668741 0.11452,8.6595651 l 0.0574,5.44137 12.53424,0.0177 12.53407,0.01743 0.019,-8.598049 0.0191,-8.5984064 0.949,-0.9464186 c 0.52128,-0.5205355 1.64594,-1.6471348 2.49813,-2.504745 l 1.5505,-1.5615947 22.69485,-0.03636 c 18.23398,-0.03636 22.73076,-0.01743 22.87663,0.05462 0.0953,0.05462 1.19151,1.0683643 2.42445,2.2484793 l 2.24266,2.1472783 0.0573,8.9161891 c 0.0191,4.903915 0.0574,16.978953 0.0383,26.833933 l -0.01,17.917729 -0.25586,0.145602 c -0.13362,0.07286 -1.95643,1.432374 -4.0343,3.012712 -2.07788,1.579803 -10.09493,7.675103 -17.81561,13.544183 -7.72091,5.86908 -14.06108,10.704938 -14.08932,10.746604 -0.0191,0.03636 -0.0764,20.768112 -0.0953,46.058652 -0.019,25.29092 -0.0764,48.19939 -0.0953,50.90815 l -0.0383,4.92467 10.7277,11.15957 c 5.90025,6.13771 12.78632,13.30028 15.3026,15.91696 l 4.57468,4.75722 0.0383,13.40713 0.0383,13.40751 7.28648,0.0363 7.28649,0.0363 2.19817,1.68169 c 1.20869,0.92459 2.22548,1.73449 2.25908,1.80184 0.0383,0.0728 0.0764,6.87175 0.11452,15.12398 l 0.0383,15.00385 -1.84263,2.60049 c -1.01201,1.43055 -1.89801,2.6638 -1.96808,2.74115 -0.11452,0.1456 -6.07399,0.1456 -122.858325,0.1456 h -122.73367 z"
       id="Pawn-3-2"
       inkscape:connector-curvature="0"
       class="Pawn" />
    <path
       inkscape:connector-curvature="0"
       style="opacity:1;fill:#ffffff;fill-opacity:1;fill-rule:evenodd;stroke:none;stroke-width:0.22593567px;stroke-linecap:butt;stroke-linejoin:miter;stroke-opacity:1"
       d="m 94.006475,59.045714 c -0.0178,0.0028 -0.0383,0.0068 -0.0574,0.0068 -0.11449,5.49e-4 -0.21384,-0.0013 -0.32077,0 -0.0574,7.27e-4 -0.0956,-9.06e-4 -0.15274,0 -0.0574,7.27e-4 -0.0955,-0.0011 -0.15272,0 -0.0574,0.0011 -0.0954,-0.0012 -0.15275,0 -13.23445,0.322146 -26.15747,7.079228 -33.78898,17.653279 -1.76816,2.476167 -3.13552,5.22717 -4.60752,7.894063 -0.42009,-0.163807 -0.87647,-0.260267 -1.35764,-0.260267 -1.99918,0 -3.61936,1.597995 -3.61936,3.568554 0,0.751686 0.23103,1.450569 0.63203,2.026249 -1.81971,1.224874 -3.78876,2.271415 -5.475,3.68067 -3.75381,2.774451 -9.92229,5.434454 -12.37233,9.429438 -0.72559,1.70537 0.45254,3.9027 2.40344,4.00316 4.07211,0.96282 10.55852,0.37313 14.69728,0.64431 2.48649,0.0138 5.02856,0.0729 7.55133,0.3003 -0.66641,0.66614 -1.31181,1.3432 -1.9341,2.02607 -2.34956,2.76245 -5.41977,5.38568 -6.17899,9.05816 -0.11468,1.85208 0.39143,3.59785 1.06739,5.30013 -0.41625,0.54055 -0.88789,1.28494 -1.49321,2.29961 -2.26346,3.79406 -0.68166,8.03076 3.61938,10.03953 0.39335,0.18382 0.89937,0.36946 1.4932,0.53873 -1.19342,3.15705 -2.71372,6.88341 -0.85354,10.08155 1.70707,3.01108 5.01139,4.42364 8.41881,4.80237 -0.42008,4.96781 -1.78154,21.07042 -1.97667,23.38115 -0.22722,2.67836 -0.67595,4.91336 -2.26117,7.36842 -0.17186,0.27482 -0.53845,0.98646 -1.18005,1.93505 -0.6282,0.92641 -1.91997,0.74441 -4.53649,0.79901 -5.43621,0.10921 -6.80761,6.20142 -4.70014,9.14915 1.09986,1.53792 1.65169,2.64561 1.30225,3.39311 -0.33988,0.7262 -4.3226,7.31981 -6.29987,10.67052 -0.72558,0.96644 -1.62685,0.47502 -4.35871,0.53328 -6.88876,0.14559 -7.94544,11.0793 -1.32326,13.41877 2.18425,0.77169 3.28027,-1.07564 3.80422,-2.14528 0.46208,-0.94459 21.02274,-35.74831 21.81496,-37.0873 1.58487,-2.67836 2.4911,-5.57479 2.94366,-8.47611 0.34752,-2.22609 1.22968,-16.52959 1.6211,-23.07264 1.80826,-0.36945 3.39959,-1.2631 4.821,-2.39771 11.02979,-3.53689 34.797765,-8.28045 41.845175,-7.85912 0,2.6782 1.80637,6.02924 0.44872,6.02924 -9.50699,1.1157 -38.724355,5.55204 -39.384845,8.48304 -0.45255,2.00877 -2.03375,14.50078 -0.67594,16.28625 0.79242,1.04106 10.64026,-3.12319 23.54285,-5.13179 12.902395,-2.00876 19.916405,-2.9026 19.916405,-2.9026 0,0 1.58103,3.57656 0.67594,5.13908 -18.561445,3.79403 -45.944405,9.14661 -46.623605,10.03932 -0.67595,0.89 -27.85592,46.7337 -27.84465,47.09189 28.74764,-8.92748 41.4226,0.44773 64.058485,-5.13197 22.63602,-5.57951 36.89989,-17.62853 36.22087,-19.63732 -0.67976,-2.0086 -20.37392,-35.71206 -20.82664,-38.16713 -0.48691,-2.64396 -6.60921,-22.4036 -2.4886,-27.6788 2.20561,-2.8238 9.08539,-2.11742 13.99346,-1.27583 2.43226,0.091 5.56053,-1.03744 5.93001,-3.70852 0.42391,-6.30608 -4.86185,-11.51356 -4.05301,-17.87059 0.59193,-3.69432 1.52756,-7.38627 1.94842,-11.11936 1.1132,-7.812338 0.78286,-16.188711 -3.24246,-23.184941 -5.15077,-9.379382 -14.86664,-15.756075 -25.2778,-18.164893 -4.89296,-1.255831 -9.945785,-1.833323 -15.003175,-1.801834 -0.0383,1.79e-4 -0.0764,-0.0013 -0.1145,0 -10e-4,0 -0.007,0 -0.008,0 -0.004,-1.92e-4 -0.01,0 -0.0159,0 -5.7e-4,0 -0.007,0 -0.008,0 -0.003,0 -0.0111,0 -0.0144,0 -9.6e-4,0 -0.007,-1.92e-4 -0.008,0 -0.007,3.58e-4 -0.0144,-9.19e-4 -0.0191,0 z m -0.0956,3.589492 c 0.004,-7.42e-4 0.01,7.27e-4 0.0144,0 9.5e-4,0 0.007,0 0.008,0 0.003,1.78e-4 0.0111,1.78e-4 0.0159,0 0.007,-1.92e-4 0.0144,0 0.0191,0 10e-4,0 0.007,1.78e-4 0.008,0 0.0383,-0.0013 0.0764,3.56e-4 0.11452,0 4.96573,-0.01825 9.935305,0.53873 14.718685,1.822952 8.91469,2.140169 18.4637,8.32303 21.26047,13.35562 2.74601,4.941399 2.16169,10.263748 -1.74142,11.658994 -9.29238,3.321208 -13.37748,-9.393407 -27.38965,-8.034382 -13.808065,1.33954 -20.821685,8.701237 -29.423205,16.959119 0,7.36e-4 0,0.0068 0,0.0068 0,7.36e-4 0,0.0054 0,0.0068 0,5.44e-4 0,0.0068 0,0.0068 0.001,0.0041 0.007,0.01225 0.008,0.01375 0.43343,0.473216 12.34426,1.667171 25.11413,6.442961 12.849325,4.80562 12.052305,14.63276 36.427105,15.56407 1.07121,3.1636 2.76241,6.14409 3.10726,9.49968 0.38189,1.18121 -1.2125,1.37595 -2.01925,1.35228 -4.79101,-0.7917 -9.63303,-1.2813 -14.49851,-1.4924 -6.51087,-0.70073 -11.71967,-1.23947 -18.25251,-1.71085 -4.643415,-0.1456 -9.519795,-2.11342 -13.147385,-5.06882 -4.06866,-2.90768 -6.56471,-6.93161 -9.93336,-10.48124 -5.76045,-5.84977 -14.38989,-7.74664 -22.41226,-8.24477 -5.71081,-0.52782 -11.47489,0.182 -17.16473,-0.37858 2.26426,-2.76664 5.06639,-5.033313 7.95674,-7.123082 2.4909,-2.071388 5.56397,-3.400566 7.97083,-5.531458 0.003,-0.0013 0.0111,-0.0054 0.0143,-0.0068 0.001,-0.0013 0.007,-0.0068 0.008,-0.0068 1.3309,-0.498692 2.28486,-1.743597 2.3324,-3.2182 1.58484,-2.722775 2.8854,-5.625561 4.65011,-8.258604 6.90764,-10.3371 19.2796,-16.885052 31.81958,-17.120559 0.0177,-3.71e-4 0.0383,-0.0041 0.0574,-0.0068 0.001,0 0.007,0 0.008,0 10e-4,0 0.007,0 0.008,0 9.6e-4,0 0.007,0 0.008,0 0.007,0 0.0191,1.78e-4 0.0383,0 0.001,0 0.007,0 0.008,0 0.007,0 0.0144,0 0.0191,0 10e-4,0 0.007,1.78e-4 0.008,0 0.001,0 0.007,1.78e-4 0.008,0 0.0111,0 0.0191,3.7e-4 0.0383,0 0.0574,-0.0012 0.1145,5.48e-4 0.19092,0 0.0162,0 0.0383,-0.0041 0.0574,-0.0068 z m -24.67346,23.584602 c -1.93446,0.07285 -3.47711,1.643502 -3.47711,3.568376 0,1.97128 1.61923,3.575471 3.61917,3.575471 1.99922,0 3.61939,-1.60528 3.61939,-3.575471 0,-1.971101 -1.61921,-3.568376 -3.61939,-3.568376 -0.0383,0 -0.0953,-0.0013 -0.13362,0 z m 13.90105,3.701601 c 0.008,-5.45e-4 0.0143,7.22e-4 0.019,0 7.6e-4,0 0.007,0 0.008,0 0.003,1.76e-4 0.0111,0 0.0143,0 9.4e-4,0 0.007,0 0.008,0 0.003,1.76e-4 0.0127,0 0.0143,0 9.3e-4,0 0.007,0 0.008,0 0.003,1.76e-4 0.0111,0 0.0143,0 0.019,-0.0013 0.0383,0.0013 0.0574,0 0.001,0 0.007,0 0.008,0 0.01,0 0.0191,0 0.0383,0 0.001,0 0.007,0 0.008,0 0.0574,-0.0028 0.13362,0 0.19092,0 1.99921,0 3.61919,1.597995 3.61919,3.568553 0,1.971278 -1.6192,3.568553 -3.61919,3.568553 -1.99918,0 -3.61917,-1.597996 -3.61917,-3.568553 0,-1.843338 1.42254,-3.378902 3.24225,-3.568553 z m 17.861465,5.131963 c 0.008,-7.36e-4 0.0143,7.35e-4 0.0191,0 9.6e-4,0 0.007,0 0.008,0 0.003,1.89e-4 0.0111,0 0.0159,0 9.8e-4,0 0.007,0 0.008,0 0.003,1.89e-4 0.0111,0 0.0144,0 9.5e-4,0 0.007,0 0.008,0 0.003,1.89e-4 0.0111,0 0.0144,0 0.0191,-0.0013 0.0383,0.0013 0.0574,0 0.001,0 0.007,0 0.008,0 0.01,0 0.0191,0 0.0383,0 0.001,0 0.007,0 0.008,0 0.0111,-7.36e-4 0.019,0 0.0383,0 0.001,0 0.007,0 0.008,0 0.0574,-0.0028 0.11466,0 0.17186,0 1.99919,0 3.61917,1.597995 3.61917,3.568552 0,1.971296 -1.61921,3.575476 -3.61917,3.575476 -1.999215,0 -3.619205,-1.60346 -3.619205,-3.575476 0,-1.836421 1.4111,-3.369438 3.221085,-3.568552 z m 15.60045,8.476118 c 5.6e-4,0 0.007,0 0.008,0 0.001,-1.9e-4 0.0111,0 0.0144,0 0.003,1.9e-4 0.0111,0 0.0144,0 0.0574,-3.7e-4 0.0956,0.007 0.15275,0.007 1.99919,0 3.61918,1.59799 3.61918,3.56855 0,1.9711 -1.61924,3.56854 -3.61918,3.56854 -1.99922,0 -3.62647,-1.59798 -3.62647,-3.56854 0,-1.86499 1.45694,-3.40856 3.30644,-3.56855 5.7e-4,0 0.007,0 0.008,0 9.5e-4,0 0.007,0 0.008,0 9.6e-4,0 0.007,0 0.008,0 0.001,0 0.007,0 0.008,0 0.01,-1.9e-4 0.0191,0 0.0383,0 0.001,0 0.007,0 0.008,0 0.001,0 0.007,0 0.008,0 0.01,-1.9e-4 0.019,0 0.0383,0 0.001,0 0.007,0 0.008,0 7.4e-4,0 0.007,0 0.008,0 0.003,-0.001 0.0111,-0.005 0.0144,-0.007 z m -55.582785,5.65776 2.67362,5.06881 9.65591,-1.24855 c 0.22915,0.14561 0.45829,0.31306 0.6817,0.47685 4.2955,3.34997 6.45932,8.94679 10.68018,12.34606 0.15274,0.14562 0.30359,0.27301 0.45442,0.40588 -3.5615,5.00691 -7.25629,9.91993 -11.06394,14.75087 -2.51894,2.91734 -4.87255,6.68354 -8.93799,7.55062 -3.08989,0.25843 -6.83147,0.0728 -8.81691,-2.61504 -1.58103,-2.60156 0.30168,-5.41152 1.1094,-7.98525 6.73121,0.69525 16.41674,-1.1084 14.54088,-13.04714 -4.30085,5.80284 -11.31276,6.24803 -12.67096,-1.5634 0,0 -3.39636,-0.001 -5.65982,-0.22387 -0.0383,-0.003 -0.0764,-0.004 -0.0956,-0.007 -0.46018,-1.19395 -0.79624,-2.42101 -0.80388,-3.71582 1.08839,-2.6931 3.28329,-4.78687 5.21184,-6.9407 0.79053,-0.85542 2.17814,-2.42084 3.04329,-3.25313 z m 30.09172,22.02102 c 2.19263,2.494 4.37019,5.00093 6.56298,7.49456 -4.5485,0.85905 -9.09531,1.72722 -13.64516,2.5801 2.25219,-3.19744 4.4983,-6.39891 6.74783,-9.59799 0.11467,-0.16379 0.22338,-0.31851 0.33415,-0.47685 z m 8.39033,46.70622 c 0.0159,-9.1e-4 0.0383,7.2e-4 0.0574,0 0.0159,-9.1e-4 0.019,7.2e-4 0.0383,0 0.0162,-5.4e-4 0.0383,7.2e-4 0.0574,0 0.0162,-5.4e-4 0.0383,7.2e-4 0.0574,0 0.0956,-0.003 0.19094,0 0.28449,0 4.123495,0 7.473235,3.29591 7.473235,7.36151 0,4.06542 -3.34994,7.36843 -7.473235,7.36843 -4.12328,0 -7.46597,-3.30301 -7.46597,-7.36843 0,-3.90871 3.08684,-7.11999 6.98956,-7.36151 z m 10.893275,6.02925 c 0.13363,0.091 4.53172,3.15703 4.97737,5.57369 0.45256,2.45504 0.67596,9.81984 2.0336,10.71273 1.35761,0.89184 6.34015,1.33956 5.88741,5.3562 -0.45253,4.0172 -2.71599,5.80137 -5.43237,5.13178 -2.71624,-0.66976 -6.78662,-1.11567 -16.97282,0 -10.186205,1.11569 -19.019145,5.13435 -22.867295,5.58061 -3.84813,0.44773 -6.10681,-4.01463 -4.52235,-7.58557 1.58485,-3.5711 4.97376,-2.00859 5.65295,-4.01718 0.67978,-2.00878 1.59057,-12.50131 7.92826,-18.08099 2.0372,4.24049 5.20481,6.47096 5.20481,6.47096 0,0 -6.56186,11.82733 -4.97739,13.16634 1.58484,1.33957 21.273485,-1.11205 22.405205,-3.1199 1.1323,-2.00859 -2.7162,-10.71257 -2.7162,-10.71257 0,0 2.03835,-2.00842 2.94381,-4.01701 0.87643,-1.94599 0.48118,-4.31313 0.45444,-4.45909 z"
       id="path2250"
       data-darkreader-inline-fill=""
       data-darkreader-inline-stroke="" />
  </g>
</svg>
