<?xml version="1.0" encoding="UTF-8" standalone="no"?>
<!-- Created with Inkscape (http://www.inkscape.org/) -->

<svg
   xmlns:dc="http://purl.org/dc/elements/1.1/"
   xmlns:cc="http://creativecommons.org/ns#"
   xmlns:rdf="http://www.w3.org/1999/02/22-rdf-syntax-ns#"
   xmlns:svg="http://www.w3.org/2000/svg"
   xmlns="http://www.w3.org/2000/svg"
   xmlns:sodipodi="http://sodipodi.sourceforge.net/DTD/sodipodi-0.dtd"
   xmlns:inkscape="http://www.inkscape.org/namespaces/inkscape"
   width="253.29854mm"
   height="285.30264mm"
   viewBox="0 0 253.29854 285.30264"
   version="1.1"
   id="svg1527"
   inkscape:version="0.92.4 (5da689c313, 2019-01-14)"
   sodipodi:docname="green-marshal.svg">
  <defs
     id="defs1521" />
  <sodipodi:namedview
     id="base"
     pagecolor="#ffffff"
     bordercolor="#666666"
     borderopacity="1.0"
     inkscape:pageopacity="0.0"
     inkscape:pageshadow="2"
     inkscape:zoom="0.24748737"
     inkscape:cx="-222.97238"
     inkscape:cy="967.47082"
     inkscape:document-units="mm"
     inkscape:current-layer="layer1"
     showgrid="false"
     inkscape:window-width="1366"
     inkscape:window-height="705"
     inkscape:window-x="-8"
     inkscape:window-y="-8"
     inkscape:window-maximized="1" />
  <metadata
     id="metadata1524">
    <rdf:RDF>
      <cc:Work
         rdf:about="">
        <dc:format>image/svg+xml</dc:format>
        <dc:type
           rdf:resource="http://purl.org/dc/dcmitype/StillImage" />
        <dc:title />
      </cc:Work>
    </rdf:RDF>
  </metadata>
  <g
     inkscape:label="Layer 1"
     inkscape:groupmode="layer"
     id="layer1"
     transform="translate(28.480448,-10.854466)">
    <path
       style="fill:#008000;stroke-width:0.08114851"
       d="m -24.630898,295.94915 c -0.0954,-0.10906 -0.9981,-1.34865 -2.0098,-2.78072 l -1.83975,-2.6007 0.0382,-15.0042 c 0.019,-8.25223 0.0764,-15.05804 0.1145,-15.12413 0.0381,-0.0731 1.04966,-0.87727 2.25789,-1.80005 l 2.19684,-1.68173 7.28271,-0.0363 7.2827097,-0.0363 0.0382,-13.4076 0.0379,-13.4076 4.57249,-4.7577 c 2.51478,-2.61635 9.39747,-9.77928 15.2946503,-15.91713 l 10.72212,-11.15928 -0.0574,-4.92476 c -0.019,-2.70864 -0.0764,-25.61777 -0.0954,-50.90924 -0.019,-25.29127 -0.0764,-46.017971 -0.0953,-46.059657 -0.0191,-0.03637 -6.36531,-4.87762 -14.0820003,-10.746835 -7.71689999,-5.869569 -15.72976,-11.964465 -17.8063697,-13.544838 -2.07679,-1.579831 -3.89134,-2.935971 -4.03221,-3.012779 l -0.25573,-0.145605 V 42.555763 16.219589 l 0.94851,-0.946442 c 0.52292,-0.520544 1.6451,-1.647173 2.49781,-2.504975 l 1.54966,-1.561625 22.68307,-0.03641 c 18.22452,-0.03642 22.71875,-0.01748 22.86458,0.0728 0.0953,0.0546 1.18516,1.064745 2.41364,2.2427 l 2.23192,2.140959 0.0764,6.561747 c 0.0379,3.609036 0.0764,7.507279 0.0764,8.662665 l 0.003,2.101099 12.6934,-0.01765 12.69339,-0.01748 0.0379,-8.242227 c 0.0191,-4.533269 0.0573,-8.248777 0.0573,-8.256786 0.009,-0.0102 1.29968,-1.106609 2.86537,-2.440365 1.56494,-1.334117 2.90755,-2.460743 2.98293,-2.502787 0.0953,-0.03642 10.1689,-0.091 26.92293,-0.109207 l 26.785498,-0.01748 2.72663,2.207939 2.72661,2.207753 0.0573,3.218445 c 0.0382,1.770937 0.0762,5.667 0.11451,8.659754 l 0.0573,5.441489 12.52756,0.01764 12.52775,0.01748 0.019,-8.598234 0.0191,-8.598599 0.9485,-0.946438 c 0.52102,-0.520544 1.64509,-1.647175 2.49647,-2.504795 l 1.54969,-1.561628 22.68306,-0.03642 c 18.22451,-0.03641 22.71894,-0.01748 22.86494,0.0546 0.0955,0.05461 1.19089,1.068386 2.42299,2.248525 l 2.24148,2.14733 0.0573,8.916382 c 0.0381,4.904021 0.0572,16.979334 0.0381,26.834514 l -0.01,17.918132 -0.25573,0.145602 c -0.13364,0.0728 -1.95541,1.432401 -4.0322,3.012777 -2.07678,1.579828 -10.08968,7.67527 -17.80636,13.544485 -7.71689,5.869203 -14.05375,10.705149 -14.0822,10.746836 -0.019,0.03637 -0.0762,20.768556 -0.0955,46.059666 -0.019,25.29143 -0.0762,48.20041 -0.0955,50.90924 l -0.0382,4.92477 10.72213,11.15979 c 5.89737,6.13788 12.77987,13.30059 15.29465,15.91733 l 4.5725,4.75732 0.0381,13.40742 0.0381,13.40781 7.28271,0.0363 7.28291,0.0363 2.19682,1.68176 c 1.20806,0.92459 2.22432,1.73451 2.25791,1.80186 0.0381,0.0731 0.0762,6.8719 0.1145,15.12432 l 0.0381,15.00418 -1.84169,2.60053 c -1.01146,1.43057 -1.89699,2.66387 -1.96703,2.74121 -0.1145,0.14562 -6.07082,0.14562 -122.794468,0.14562 h -122.6707 z"
       id="Pawn-0-1-5-0"
       inkscape:connector-curvature="0"
       class="Pawn" />
    <path
       inkscape:connector-curvature="0"
       style="opacity:1;fill:#ffffff;fill-opacity:1;fill-rule:evenodd;stroke:none;stroke-width:0.21464396px;stroke-linecap:butt;stroke-linejoin:miter;stroke-opacity:1"
       d="m 106.25912,65.578123 c 0,5.45e-4 0,0.0068 0,0.0073 -0.003,0 -0.009,0 -0.0143,0 -10.794278,0.182006 -21.445028,6.788349 -26.374428,14.225917 -3.24877,4.901842 -4.67305,15.004914 -1.39317,26.29233 l -10.98609,17.26888 c -1.52867,-3.57792 -5.88131,-5.84898 -10.73587,-5.2866 -5.7632,0.66797 -10.06256,5.07857 -9.59997,9.84392 0.20994,2.17188 1.376,4.0453 3.12512,5.37759 l 3.25354,46.48499 c -7.27621,8.77663 -14.54115,29.75594 -14.54115,29.75594 0,0 -3.61198,-1.73635 -5.34544,-0.94645 -1.73288,0.78993 -3.66807,19.10427 -3.90166,21.14604 -0.28817,2.52537 9.71198,12.67851 24.84706,14.67474 15.96794,2.10621 29.32226,-7.88765 51.856658,-7.88765 21.8294,0 27.59182,1.89505 45.21499,5.20923 2.60008,-2.84077 3.75796,-14.83964 2.16896,-29.20189 0,0 4.47707,-0.47139 8.81063,-3.1551 0,0 -5.9258,-16.56983 -6.93689,-19.88418 -1.0115,-3.31435 0.43512,-9.31352 -2.02147,-11.3653 -2.4556,-2.05177 -16.32233,3.15528 -22.10039,2.83969 -5.7781,-0.31488 -4.91222,-5.04819 -5.05668,-12.78168 -0.13364,-7.27485 -1.16799,-10.50551 3.27911,-15.06736 9.70875,5.38217 18.1875,9.6821 18.96901,8.75022 1.83405,-2.18772 -9.10376,-29.66566 -13.72624,-42.92328 0,0 17.91514,5.99276 27.8823,-5.05509 0,0 -8.80758,-3.78794 -20.07269,-12.15067 0.39889,-0.091 13.2375,-3.420483 19.63639,-20.199415 0,0 -12.8556,3.78759 -29.17871,0.631562 0,0 6.78823,-3.477801 9.09956,-10.895534 -6.21147,0.163808 -15.74159,-0.944621 -28.74224,-4.732751 -2.32337,-0.677069 -4.70305,-0.984663 -7.07813,-0.975561 -0.0573,3.65e-4 -0.1145,-0.0012 -0.1718,0 -0.0159,3.65e-4 -0.0379,-5.47e-4 -0.0379,0 -0.001,1.81e-4 -0.003,0 -0.005,0 -0.005,0 -0.0128,0 -0.0188,0 -5.6e-4,1.81e-4 -0.005,1.81e-4 -0.006,0 -0.005,1.81e-4 -0.0189,-1.85e-4 -0.0189,0 -0.002,1.81e-4 -0.0111,1.81e-4 -0.0128,0 -9.8e-4,0 -0.005,0 -0.006,0 -5.7e-4,1.81e-4 -0.005,1.81e-4 -0.005,0 -5.9e-4,0 -0.005,0 -0.006,0 -5.9e-4,0 -0.005,1.81e-4 -0.005,0 -5.7e-4,0 -0.005,0 -0.005,0 -7.8e-4,0 -0.006,0 -0.006,0 -3.9e-4,0 -0.005,1.81e-4 -0.005,0 z m 0.21757,4.943153 c 9.2347,1.108427 16.55444,4.567486 25.81601,5.510833 -3.97915,4.373469 -6.4071,5.410732 -9.72191,8.953332 12.00177,2.836783 15.71869,3.329827 28.20332,4.17181 -6.17925,5.88304 -8.92457,8.779696 -16.69088,12.038369 7.45313,5.94874 8.56976,8.08026 16.74221,12.7815 -7.33291,2.48332 -15.15667,0.70619 -22.24813,-1.85793 -0.008,-0.003 -0.0128,-0.005 -0.019,-0.008 -0.002,-1.7e-4 -0.006,0 -0.008,0 -7.5e-4,1.8e-4 -0.006,-3.6e-4 -0.006,0 -0.003,0.001 -0.009,0.008 -0.0128,0.0158 -5.9e-4,10e-4 -0.006,0.004 -0.006,0.008 -0.13364,0.40405 1.61074,5.49809 3.98506,12.28374 -6.47676,-3.76793 -14.96007,-9.21235 -19.70127,-14.30327 l 2.74018,19.88397 c 0,0 -9.24386,-7.57023 -16.177688,-19.4073 l 0.52674,21.52479 c -7.75887,-6.11875 -14.27225,-14.60814 -17.62831,-24.18903 -2.46059,-7.31708 -2.45734,-16.84703 0.71948,-24.139889 5.10342,-8.28646 14.20509,-12.856863 23.178538,-13.258372 h 0.0954 z M 79.871352,112.00705 c 1.01147,2.84079 1.88174,3.78797 4.6269,7.41794 l -15.74773,23.20033 -10.11333,1.57804 c -0.0176,-0.34582 16.19831,-24.6497 21.23416,-32.19594 z m 45.362508,16.25916 8.08559,2.99383 6.3594,19.0988 -9.68336,-4.89381 z M 99.289612,140.3326 c -1.54777,17.99928 -5.18035,21.69332 -10.21601,18.58008 -1.28825,-2.9325 -3.11327,-3.80397 -5.78189,-3.71606 -0.26337,0.008 -0.54009,0.0363 -0.82062,0.0545 -2.05754,0.19293 -3.85036,0.16382 -5.42236,0.40588 -0.19847,-0.2621 -0.41413,-0.55878 -0.64124,-0.88274 -1.28823,-1.83064 -1.08211,-1.89779 3.90166,-9.51447 l 10.54313,2.7343 0.79011,-6.05776 z m -24.25658,5.09731 c -1.07257,1.87324 -2.40449,4.18254 -3.53583,6.03663 -1.87413,3.0705 -1.19662,4.77354 0.36641,7.84565 -1.87412,3.2523 -5.64865,9.83844 0.0574,10.93065 0.53245,0.10908 1.03819,0.19111 1.52104,0.28031 -0.1145,2.51389 1.37792,8.17835 4.69081,9.19177 3.61139,1.10479 -0.58018,6.79053 -3.03521,6.63273 -2.97283,-0.19112 -2.88676,-2.53047 -5.19793,-3.79324 -1.82827,-0.99921 -3.65391,0.27301 -5.26848,-2.59416 l -1.53443,-32.02063 z m 47.306828,12.34686 0.15261,8.21019 c 0,0 -19.06767,3.15439 -20.65668,4.73275 -1.58973,1.57802 -7.078108,16.09786 -7.078108,16.09786 l -7.94435,-3.63176 c 0,0 6.06338,-16.56711 7.79682,-18.14528 1.7329,-1.57802 27.734808,-7.26376 27.734808,-7.26376 z m -42.410668,1.39601 c 0.0143,-9.3e-4 0.0379,9.1e-4 0.0379,0 0.0143,-9.3e-4 0.0381,9.1e-4 0.0381,0 0.0128,-9.3e-4 0.0379,9.1e-4 0.0379,0 0.016,-9.3e-4 0.0382,9.1e-4 0.0382,0 0.0159,-9.3e-4 0.0381,7.1e-4 0.0381,0 0.0161,-5.7e-4 0.0379,7.1e-4 0.0379,0 0.0159,-5.7e-4 0.0381,7.1e-4 0.0381,0 0.0159,-5.7e-4 0.0379,5.4e-4 0.0379,0 0.0382,-9.3e-4 0.0573,7.1e-4 0.0953,0 0.0381,-9.3e-4 0.0954,5.4e-4 0.13347,0 1.34356,-0.0141 2.71116,0.30756 3.97857,0.93913 3.03103,1.5107 4.22401,14.64894 1.3741,12.6625 -3.96004,-2.75926 -5.91414,-4.73384 -11.31375,-6.12093 -2.71023,-0.69527 -0.62216,-3.69095 0.61642,-5.2655 1.2844,-1.31954 2.96998,-2.07251 4.75514,-2.21555 z m 69.676918,26.22932 c 0.006,-9e-4 0.009,7.4e-4 0.0128,0 7.7e-4,-1.6e-4 0.006,0 0.006,0 0.003,0 0.0111,-3.4e-4 0.0128,0 7.7e-4,0 0.005,0 0.005,0 2.45582,11.99161 6.06414,21.14605 6.06414,21.14605 -12.13381,4.10355 -26.57958,1.41603 -26.57958,1.41603 1.58976,-11.83706 1.59165,-21.46164 1.59165,-21.46164 9.64083,0.45139 18.2316,-0.9683 18.88561,-1.10114 z m -85.296188,0.74988 c 0.019,-9.2e-4 0.0382,7.3e-4 0.0574,0 0.0191,-9.2e-4 0.0379,7.3e-4 0.0573,0 0.0191,-7.2e-4 0.0381,7.3e-4 0.0574,0 0.0191,-7.2e-4 0.0381,3.6e-4 0.0573,0 1.29967,-0.0363 2.41822,0.20749 3.19575,0.82816 3.75582,2.99856 4.0442,12.62004 1.15459,20.35356 -2.88865,7.73388 -14.58563,12.62751 -14.58563,12.62751 l -11.84585,-8.51868 c 5.20018,-13.57324 6.06929,-17.8355 8.66942,-20.36084 0.83015,-0.80632 8.20121,-4.69383 13.18078,-4.92898 z m 20.48985,0.65888 c 9.8e-4,-2.1e-4 0.005,1.7e-4 0.006,0 5.6e-4,0 0.005,0 0.005,0 9.5e-4,-2.1e-4 0.005,0 0.005,0 0.003,1.7e-4 0.009,-2.1e-4 0.0144,0 10e-4,0 0.005,0 0.006,0 2.4018,-0.16381 20.745418,9.61146 39.234048,26.9934 0,0 -2.01878,9.31772 -7.5079,17.68262 -19.645358,-19.72839 -39.868998,-27.77787 -41.024558,-29.98742 -1.15654,-2.20961 -0.28627,-7.73572 1.01337,-10.41868 1.29968,-2.68319 6.06644,-3.94724 8.23314,-4.263 9.5e-4,-2.1e-4 0.005,1.8e-4 0.006,0 0.001,-5.4e-4 0.005,-0.006 0.005,-0.006 z m -0.5649,4.26992 c -2.42851,0.14559 -4.36352,2.35731 -4.36352,5.04797 0,2.788 2.07509,5.05526 4.62672,5.05526 2.5516,0 4.62016,-2.26726 4.62016,-5.05526 0,-2.7878 -2.06856,-5.04797 -4.62016,-5.04797 -0.0573,0 -0.1145,-0.003 -0.1718,0 -0.0191,7.2e-4 -0.0379,-9.3e-4 -0.0573,0 -0.009,3.5e-4 -0.0159,-7.5e-4 -0.019,0 z m -14.32932,23.98552 c 7.36704,10.73228 -4.3355,16.26258 -9.82461,9.00247 4.47802,-2.84079 9.82461,-9.00247 9.82461,-9.00247 z"
       id="path2183"
       sodipodi:nodetypes="csssccsscccsssscccsssscsccccccsssssssssssssssccccccccsssssccccccccccccccccccccccsscscccccscscssscccccsccsccssssssssssssscccsssccccccssssssccsccsssssccssssccsssssscccc"
       data-darkreader-inline-fill=""
       data-darkreader-inline-stroke="" />
  </g>
</svg>
