<?xml version="1.0" encoding="UTF-8" standalone="no"?>
<!-- Created with Inkscape (http://www.inkscape.org/) -->

<svg
   xmlns:dc="http://purl.org/dc/elements/1.1/"
   xmlns:cc="http://creativecommons.org/ns#"
   xmlns:rdf="http://www.w3.org/1999/02/22-rdf-syntax-ns#"
   xmlns:svg="http://www.w3.org/2000/svg"
   xmlns="http://www.w3.org/2000/svg"
   xmlns:sodipodi="http://sodipodi.sourceforge.net/DTD/sodipodi-0.dtd"
   xmlns:inkscape="http://www.inkscape.org/namespaces/inkscape"
   width="253.05043mm"
   height="285.0972mm"
   viewBox="0 0 253.05043 285.0972"
   version="1.1"
   id="svg1527"
   inkscape:version="0.92.4 (5da689c313, 2019-01-14)"
   sodipodi:docname="green-tower.svg">
  <defs
     id="defs1521" />
  <sodipodi:namedview
     id="base"
     pagecolor="#ffffff"
     bordercolor="#666666"
     borderopacity="1.0"
     inkscape:pageopacity="0.0"
     inkscape:pageshadow="2"
     inkscape:zoom="0.175"
     inkscape:cx="-416.2805"
     inkscape:cy="776.18605"
     inkscape:document-units="mm"
     inkscape:current-layer="layer1"
     showgrid="false"
     inkscape:window-width="1366"
     inkscape:window-height="705"
     inkscape:window-x="-8"
     inkscape:window-y="-8"
     inkscape:window-maximized="1" />
  <metadata
     id="metadata1524">
    <rdf:RDF>
      <cc:Work
         rdf:about="">
        <dc:format>image/svg+xml</dc:format>
        <dc:type
           rdf:resource="http://purl.org/dc/dcmitype/StillImage" />
        <dc:title></dc:title>
      </cc:Work>
    </rdf:RDF>
  </metadata>
  <g
     inkscape:label="Layer 1"
     inkscape:groupmode="layer"
     id="layer1"
     transform="translate(12.8913,5.5932024)">
    <path
       style="fill:#008000;stroke-width:0.08107984;fill-opacity:1"
       d="m -9.0454998,279.29622 c -0.0953,-0.10903 -0.9971602,-1.3477 -2.0078402,-2.77872 l -1.83796,-2.59882 0.0383,-14.99339 c 0.0189,-8.2463 0.0762,-15.04722 0.11434,-15.11325 0.0381,-0.0727 1.04864,-0.87664 2.2557,-1.79876 l 2.1947002,-1.68053 7.27562,-0.0365 7.2756304,-0.0362 0.0381,-13.39797 0.0381,-13.39796 4.5680504,-4.75426 c 2.51233,-2.61449 9.38833,-9.77225 15.279749,-15.90568 L 36.8987,181.65257 36.8415,176.73136 C 36.8226,174.02466 36.7653,151.13201 36.7462,125.85877 36.7273,100.5857 36.67,79.873943 36.6509,79.832288 36.632,79.795998 30.29179,74.95818 22.58262,69.093196 14.873241,63.228213 6.8681706,57.137706 4.7933806,55.558464 2.7186306,53.979779 0.9060002,52.624616 0.7651202,52.547858 l -0.25549,-0.145524 V 26.085237 -0.23198549 l 0.94756,-0.94575341 c 0.5224104,-0.5201672 1.6435004,-1.6459802 2.4953804,-2.5031672 l 1.54818,-1.560501 22.6609994,-0.03645 c 18.20676,-0.0363 22.69683,-0.01749 22.8425,0.07277 0.0953,0.05452 1.1859,1.063985 2.41128,2.241096 l 2.22977,2.13940401 0.0762,6.55702919 c 0.0381,3.6064421 0.0764,7.5018769 0.0764,8.6564349 l 0.003,2.099575 12.68084,-0.01762 12.68106,-0.01762 0.0381,-8.2362865 c 0.0189,-4.5300073 0.0572,-8.24284019 0.0572,-8.25083799 0.009,-0.010603 1.29841,-1.10582221 2.8626,-2.43861361 1.56341,-1.333154 2.90471,-2.458968 2.98003,-2.500982 0.0953,-0.03645 10.15897,-0.09099 26.89672,-0.109072 l 26.7594,-0.01748 2.724,2.206356 2.72397,2.20633791 0.0572,3.21595639 c 0.0381,1.7696505 0.0762,5.6629173 0.11434,8.6536948 l 0.0572,5.437571 12.51535,0.01762 12.51555,0.01748 0.0189,-8.5920484 0.0189,-8.59240939 0.94758,-0.94575431 c 0.52051,-0.520167 1.64349,-1.645981 2.49459,-2.502986 l 1.54628,-1.560501 22.66099,-0.03646 c 18.20679,-0.0363 22.69685,-0.01748 22.84252,0.05452 0.0954,0.05453 1.18971,1.067616 2.42081,2.246912 l 2.23932,2.1457765 0.0573,8.9099666 c 0.0381,4.900488 0.0573,16.967115 0.0381,26.815198 l -0.01,17.905233 -0.25548,0.145524 c -0.13347,0.07277 -1.95352,1.431363 -4.02829,3.010604 -2.07478,1.578701 -10.07986,7.669749 -17.78905,13.534733 -7.70936,5.864984 -14.04008,10.697453 -14.06829,10.739091 -0.019,0.0363 -0.0762,20.753625 -0.0954,46.026475 -0.019,25.27325 -0.0764,48.16571 -0.0954,50.8726 l -0.0383,4.92122 10.71171,11.15179 c 5.8914,6.13341 12.76723,13.291 15.27975,15.90584 l 4.56784,4.7539 0.0381,13.39779 0.0381,13.39814 7.27562,0.0362 7.27561,0.0363 2.19489,1.68053 c 1.20689,0.92395 2.22216,1.73329 2.25553,1.80059 0.0381,0.0727 0.0762,6.86693 0.11434,15.11343 l 0.0381,14.99337 -1.83989,2.59865 c -1.0105,1.42955 -1.89517,2.66195 -1.96515,2.73926 -0.11433,0.14557 -6.06471,0.14557 -122.67479,0.14557 H -8.8701898 Z"
       id="Pawn-0"
       inkscape:connector-curvature="0"
       class="Pawn" />
  </g>
</svg>
