<?xml version="1.0" encoding="UTF-8" standalone="no"?>
<!-- Created with Inkscape (http://www.inkscape.org/) -->

<svg
   xmlns:dc="http://purl.org/dc/elements/1.1/"
   xmlns:cc="http://creativecommons.org/ns#"
   xmlns:rdf="http://www.w3.org/1999/02/22-rdf-syntax-ns#"
   xmlns:svg="http://www.w3.org/2000/svg"
   xmlns="http://www.w3.org/2000/svg"
   xmlns:sodipodi="http://sodipodi.sourceforge.net/DTD/sodipodi-0.dtd"
   xmlns:inkscape="http://www.inkscape.org/namespaces/inkscape"
   width="253.14418mm"
   height="285.29001mm"
   viewBox="0 0 253.14418 285.29001"
   version="1.1"
   id="svg1527"
   inkscape:version="0.92.4 (5da689c313, 2019-01-14)"
   sodipodi:docname="blue-colonel.svg">
  <defs
     id="defs1521" />
  <sodipodi:namedview
     id="base"
     pagecolor="#ffffff"
     bordercolor="#666666"
     borderopacity="1.0"
     inkscape:pageopacity="0.0"
     inkscape:pageshadow="2"
     inkscape:zoom="0.24748737"
     inkscape:cx="854.26272"
     inkscape:cy="530.2856"
     inkscape:document-units="mm"
     inkscape:current-layer="layer1"
     showgrid="false"
     inkscape:window-width="1366"
     inkscape:window-height="705"
     inkscape:window-x="-8"
     inkscape:window-y="-8"
     inkscape:window-maximized="1" />
  <metadata
     id="metadata1524">
    <rdf:RDF>
      <cc:Work
         rdf:about="">
        <dc:format>image/svg+xml</dc:format>
        <dc:type
           rdf:resource="http://purl.org/dc/dcmitype/StillImage" />
        <dc:title />
      </cc:Work>
    </rdf:RDF>
  </metadata>
  <g
     inkscape:label="Layer 1"
     inkscape:groupmode="layer"
     id="layer1"
     transform="translate(25.6544,4.0453722)">
    <path
       style="fill:#000080;fill-opacity:1;stroke-width:0.08112504"
       d="m -21.80689,281.0364 c -0.0955,-0.10911 -0.99762,-1.34862 -2.00873,-2.78059 l -1.83878,-2.6006 0.0383,-15.00351 c 0.019,-8.25185 0.0763,-15.05737 0.11458,-15.12344 0.0383,-0.0728 1.04909,-0.87725 2.25672,-1.79997 l 2.19564,-1.68169 7.27882,-0.0364 7.2788405,-0.0364 0.0383,-13.40701 0.0383,-13.40701 4.57007,-4.75747 c 2.51343996,-2.61626 9.39248,-9.77885 15.2864695,-15.91642 l 10.71639,-11.15915 -0.0573,-4.92453 c -0.019,-2.70854 -0.0763,-25.61667 -0.0955,-50.907 -0.0189,-25.29013 -0.0763,-46.015883 -0.0956,-46.057563 -0.0189,-0.03641 -6.3619,-4.877402 -14.0744695,-10.746339 -7.71276,-5.868899 -15.72137,-11.96352 -17.79705,-13.543821 -2.0756805,-1.579758 -3.8891005,-2.93584 -4.0300605,-3.012643 l -0.25567,-0.14562 V 27.654446 1.319452 l 0.948,-0.94639699 c 0.52263,-0.52052 1.6461305,-1.64709701 2.4964605,-2.50486101 l 1.54886,-1.561559 22.6709395,-0.0364 c 18.21478,-0.0364 22.70683,-0.01747 22.85254,0.0728 0.0955,0.05461 1.18644,1.064698 2.41236,2.2426 l 2.23074,2.14086301 0.0763,6.56145299 c 0.0383,3.608871 0.0763,7.50694 0.0763,8.662275 l 0.003,2.101006 12.68645,-0.01767 12.68662,-0.01748 0.0383,-8.241858 c 0.0189,-4.533065 0.0573,-8.248407 0.0573,-8.256415 0.011,-0.01025 1.29898,-1.10655799 2.86384,-2.44025099 1.56409,-1.33405901 2.90599,-2.46063801 2.98133,-2.50267901 0.0763,-0.0364 10.16345,-0.091 26.90853,-0.109191 l 26.7714,-0.01748 2.72499,2.207838 2.72518,2.20765501 0.0572,3.21830099 c 0.0189,1.770858 0.0763,5.666742 0.11458,8.659365 l 0.0573,5.441243 12.52087,0.01767 12.52106,0.01748 0.0189,-8.597847 0.0189,-8.598231 0.94797,-0.94639699 c 0.52074,-0.520519 1.64424,-1.64709701 2.49534,-2.50466201 l 1.54884,-1.561557 22.67095,-0.0364 c 18.2146,-0.0364 22.70661,-0.01747 22.85255,0.05461 0.0955,0.05461 1.19024,1.06834 2.42169,2.248426 l 2.2403,2.14723101 0.0572,8.91598399 c 0.0381,4.903799 0.0571,16.978569 0.0381,26.833307 l -0.01,17.917324 -0.2556,0.145598 c -0.13357,0.0728 -1.95436,1.432339 -4.03004,3.012643 -2.07588,1.579756 -10.08431,7.674925 -17.79706,13.543863 -7.71257,5.868965 -14.04606,10.704698 -14.07448,10.746368 -0.0189,0.03641 -0.0763,20.76763 -0.0956,46.05757 -0.0189,25.29032 -0.0763,48.19826 -0.0954,50.90693 l -0.0573,4.92455 10.71645,11.1593 c 5.89402,6.13758 12.77302,13.3 15.28646,15.9166 l 4.57007,4.75711 0.0381,13.40683 0.0381,13.40719 7.27882,0.0364 7.2788,0.0364 2.19567,1.68168 c 1.20741,0.92456 2.22312,1.73446 2.25669,1.80179 0.0381,0.0728 0.0763,6.87159 0.11443,15.12364 l 0.0381,15.00351 -1.84069,2.60041 c -1.01093,1.43052 -1.896,2.66375 -1.966,2.74109 -0.11442,0.14561 -6.0674,0.14561 -122.72894,0.14561 H -21.6492 Z"
       id="Pawn-0-1-5"
       inkscape:connector-curvature="0"
       class="Pawn" />
    <path
       inkscape:connector-curvature="0"
       style="opacity:1;fill:#ffffff;fill-opacity:1;fill-rule:evenodd;stroke:#000000;stroke-width:0.24111684px;stroke-linecap:butt;stroke-linejoin:miter;stroke-opacity:1"
       d="m 113.35994,39.491621 c -13.92089,0.300028 -27.42657,7.913576 -29.84525,26.07229 0,0 -23.60955,7.955376 -48.44412,16.847452 0.50119,4.406027 1.12494,8.423257 1.97637,12.143077 -3.8645,11.96232 -6.62022,26.52224 1.46637,28.10105 6.23765,1.2178 7.77888,-3.50654 8.04042,-7.31376 5.51298,7.07154 13.60113,13.5868 25.67437,20.94165 -3.38127,8.39792 -6.19912,15.86006 -5.6927,22.0075 0.45526,5.52117 7.68412,17.13693 12.62868,24.50668 -1.65897,0.45539 -3.05904,1.6261 -3.76162,4.77778 -1.21686,5.4604 -7.47659,30.11522 -7.47659,30.11522 0,0 18.78338,10.25788 37.56129,9.76145 18.77769,-0.49646 33.73031,-10.75376 33.73031,-10.75376 0,-9e-5 -5.21728,-25.81423 -5.73883,-27.79975 -0.43776,-1.67008 -0.5078,-4.51461 -2.8967,-5.57171 10.75564,-14.87323 13.88365,-18.55476 14.19664,-27.18962 0.17506,-5.02729 -3.32039,-11.95156 -6.55763,-17.23699 3.63228,-4.65986 3.90696,-9.19591 2.33269,-16.47257 18.93329,-21.76207 16.56235,-51.478629 2.21664,-70.440129 -5.96448,-7.883783 -17.64025,-12.648286 -29.08816,-12.49586 -0.044,6.82e-4 -0.10968,-0.001 -0.15305,0 -0.0439,9.75e-4 -0.10968,-0.0012 -0.15288,0 z m 2.74957,4.300018 c 32.64498,-0.246872 43.53478,49.911841 22.73149,70.197561 0.10968,-0.5985 3.32217,-19.86192 -3.9391,-33.452228 0,0 3.19934,19.891498 -8.35736,25.741578 0.24513,-4.21046 -0.008,-16.83708 -7.12907,-29.468276 0.15304,0.666829 4.72332,22.036456 -7.13695,25.491566 0,-3.04197 -0.98488,-14.74589 -9.09883,-27.615903 3.68675,10.992883 5.40856,23.381193 -8.09452,29.468253 0.17507,-0.57691 -1.15338,-12.98265 -4.19409,-21.04454 -3.44252,-9.12604 -8.35868,-38.650282 24.83236,-39.310652 0.13152,-0.0024 0.25828,-0.0056 0.3874,-0.0056 z M 81.0586,71.165075 c 0.001,0 0.008,-7.2e-5 0.01,0 0.008,0 0.0182,-1.44e-4 0.0213,0 0.001,0 0.008,4.4e-5 0.008,0 0.001,0 0.008,0 0.008,0 0.008,0 0.0182,-1.44e-4 0.0213,0 0.001,-7.2e-5 0.008,4.4e-5 0.008,0 0.0657,-0.0043 0.13104,0.0043 0.15288,0.01695 1.47512,0.46787 3.19497,5.849758 2.70316,7.019766 C 83.49884,79.371715 44.40634,92.94328 42.93096,92.24126 41.45584,91.53918 40.08047,87.24598 41.20852,85.45675 42.25907,83.78918 77.5177,71.502458 81.0484,71.16734 Z m 26.30752,29.497615 1.71371,12.16516 11.80203,-10.06288 0.49464,14.98036 11.55494,-9.82763 c 0,0 0.49243,8.6599 -1.47515,14.50991 -3.4423,1.17012 -21.63409,2.09984 -33.43657,1.63194 -11.51928,-0.45657 -18.80376,-4.93097 -19.14759,-5.14534 0.004,-10e-4 0.011,-0.005 0.0163,-0.005 0.001,-0.001 0.008,-0.005 0.008,-0.005 0.003,-0.001 0.0143,-0.005 0.0163,-0.005 0.001,-0.003 0.008,-0.0122 0.008,-0.0169 10e-4,-0.001 0.008,-0.005 0.008,-0.005 0.001,-0.003 0.008,-0.0122 0.01,-0.0169 10e-4,-0.003 0.008,-0.0121 0.008,-0.0171 2.1e-4,-0.001 -2.3e-4,-0.005 0,-0.005 0.001,-0.0121 0.008,-0.0233 0.008,-0.0293 0.0876,-0.49921 -0.60407,-2.68044 2.59531,-7.14471 3.68829,-5.14804 10.07956,-7.95331 10.07956,-7.95331 l 2.21666,9.82767 z m -61.29671,2.03614 c 0.011,-0.001 0.0213,9.5e-4 0.0219,0 10e-4,-1.7e-4 0.008,3e-5 0.008,0 0.004,-4e-5 0.011,-1.2e-4 0.0163,0 0.001,0 0.008,3e-5 0.01,0 2.51344,-0.0915 13.45227,13.70317 31.48255,21.83103 18.68751,8.42408 55.81679,1.6368 58.02975,2.57272 2.21293,0.93592 0.73534,6.79066 -0.24734,7.9606 -0.98271,1.17013 -26.559,6.31682 -52.62292,-0.23539 -26.06412,-6.55204 -38.84888,-29.72302 -36.8817,-32.06303 0.004,-0.003 0.0182,-0.0121 0.0213,-0.0169 0.0198,-0.0121 0.0439,-0.0233 0.0657,-0.0292 0.0219,-0.005 0.0441,-0.017 0.0876,-0.0233 z m 57.17985,39.70755 c 0.044,-9e-4 0.10967,9.2e-4 0.15304,0 0.0657,-0.001 0.13152,9.2e-4 0.19698,0 l 0.43993,11.25367 C 96.86,153.449 91.10256,151.52466 81.58588,148.12511 c 2.47691,-3.6048 7.6782,-5.40757 21.65775,-5.71873 z m 28.49353,7.21824 c -1.61083,9.21669 -3.22782,21.92601 -6.95922,24.55073 -3.99909,2.81293 -7.30155,2.31669 -10.60486,-0.3306 -3.30356,-2.64738 -3.99735,-5.45926 -3.82335,-10.09225 0.0439,-0.92383 0.0657,-1.7838 0.10952,-2.56533 3.82095,-0.19685 12.94672,-0.72 13.63266,-1.24236 0.59966,-0.45715 -1.36573,-3.04382 -2.6417,-4.60145 3.27857,-1.35352 6.60358,-3.22226 10.29602,-5.71869 z m -51.75796,2.68292 c 3.67192,1.31458 6.79094,2.41998 9.62413,3.31508 l -2.20131,4.49119 c 0,0 8.86226,1.15433 10.77467,0.49236 1.08119,-0.37378 2.72072,-1.49077 3.93935,-2.38887 0.69163,0.045 1.39199,0.0759 2.10987,0.0894 l 0.41804,10.73918 c 0,0 -4.34753,2.14874 -6.78176,4.96165 -2.43422,2.81285 -6.09142,3.80981 -12.00274,-1.15398 -5.08684,-4.27126 -6.82092,-14.66939 -5.87803,-20.54471 z m 27.12629,29.71819 c 9e-4,0 0.008,-1.1e-4 0.01,0 10e-4,6e-5 0.008,0 0.008,0 0.001,0 0.0143,-4e-5 0.0163,0 0.003,-4e-5 0.0127,6e-5 0.0163,0 0.004,1.2e-4 0.0182,-1.7e-4 0.0213,0 0.001,0 0.004,6e-5 0.008,0 0.94329,-0.0293 1.9632,0.34773 2.98923,1.08055 2.08579,1.48924 2.26526,2.32296 5.91635,1.992 0.86892,9.26601 -18.60172,13.73335 -21.20971,0.3306 4.69443,-0.3306 8.34116,-0.17134 9.73202,-1.99199 0.68505,-0.89582 1.54082,-1.35042 2.47952,-1.40395 6.5e-4,0 0.008,0 0.008,0 10e-4,0 0.008,0 0.01,0 0,-9e-4 0,-0.005 0,-0.005 z m -26.6474,9.18084 c 0.001,-5e-5 0.008,-5e-5 0.008,0 0.008,-2.9e-4 0.0219,2.1e-4 0.0439,0 1.5627,-0.16939 18.11037,6.22214 19.0703,7.62248 0.99148,1.44541 5.39197,22.00656 3.65329,23.99215 -1.7378,1.98558 -5.38667,1.15473 -6.60376,-0.16744 -1.2169,-1.32374 -3.13548,-18.36464 -4.17881,-19.85383 -1.04399,-1.4892 -11.99465,-4.9646 -13.03796,-6.45372 -1.04398,-1.48922 -0.17506,-4.79975 1.04176,-5.1307 10e-4,7e-5 0.0127,-6e-5 0.0163,0 -2.3e-4,-4.4e-4 -2.3e-4,-0.005 0,-0.005 z m 48.3671,0.98497 c 8.5e-4,-1.4e-4 0.008,1e-5 0.008,0 0.004,1e-5 0.011,-7e-5 0.0163,0 8.6e-4,-7e-5 0.008,1.5e-4 0.008,0 8.9e-4,-7e-5 0.008,0 0.008,0 0.008,1e-5 0.0182,2e-4 0.0212,0 0.008,-2.4e-4 0.0219,2e-4 0.044,0 0.008,-2.4e-4 0.0219,1.5e-4 0.0219,0 0.008,-2.1e-4 0.0219,1.1e-4 0.0219,0 0.0187,-8.7e-4 0.0439,4.8e-4 0.0439,0 0.0876,-0.003 0.15305,0.0121 0.19698,0.0233 1.2169,0.33061 1.56927,4.13398 0.52529,5.62317 -1.04399,1.48921 -10.43435,3.97223 -11.47769,5.4614 -1.04401,1.48922 -4.6916,17.53782 -5.90869,18.86152 -1.21689,1.32374 -5.22056,2.14725 -6.95925,0.16161 -1.73998,-1.9856 2.90238,-22.04917 5.22123,-23.82311 1.98294,-1.51669 15.45097,-6.00214 18.18983,-6.30676 z"
       id="path2224"
       data-darkreader-inline-fill=""
       data-darkreader-inline-stroke="" />
  </g>
</svg>
