<?xml version="1.0" encoding="UTF-8" standalone="no"?>
<!-- Created with Inkscape (http://www.inkscape.org/) -->

<svg
   xmlns:dc="http://purl.org/dc/elements/1.1/"
   xmlns:cc="http://creativecommons.org/ns#"
   xmlns:rdf="http://www.w3.org/1999/02/22-rdf-syntax-ns#"
   xmlns:svg="http://www.w3.org/2000/svg"
   xmlns="http://www.w3.org/2000/svg"
   xmlns:sodipodi="http://sodipodi.sourceforge.net/DTD/sodipodi-0.dtd"
   xmlns:inkscape="http://www.inkscape.org/namespaces/inkscape"
   width="253.26013mm"
   height="285.50702mm"
   viewBox="0 0 253.26013 285.50702"
   version="1.1"
   id="svg1527"
   inkscape:version="0.92.4 (5da689c313, 2019-01-14)"
   sodipodi:docname="blue-captain.svg">
  <defs
     id="defs1521" />
  <sodipodi:namedview
     id="base"
     pagecolor="#ffffff"
     bordercolor="#666666"
     borderopacity="1.0"
     inkscape:pageopacity="0.0"
     inkscape:pageshadow="2"
     inkscape:zoom="0.24748737"
     inkscape:cx="-339.41011"
     inkscape:cy="484.36285"
     inkscape:document-units="mm"
     inkscape:current-layer="layer1"
     showgrid="false"
     inkscape:window-width="1366"
     inkscape:window-height="705"
     inkscape:window-x="-8"
     inkscape:window-y="-8"
     inkscape:window-maximized="1" />
  <metadata
     id="metadata1524">
    <rdf:RDF>
      <cc:Work
         rdf:about="">
        <dc:format>image/svg+xml</dc:format>
        <dc:type
           rdf:resource="http://purl.org/dc/dcmitype/StillImage" />
        <dc:title />
      </cc:Work>
    </rdf:RDF>
  </metadata>
  <g
     inkscape:label="Layer 1"
     inkscape:groupmode="layer"
     id="layer1"
     transform="translate(31.852163,2.56995)">
    <path
       style="fill:#000080;fill-opacity:1;stroke-width:0.08117115"
       d="m -28.003233,282.72892 c -0.0952,-0.1092 -0.99794,-1.34966 -2.00945,-2.78273 l -1.83948,-2.60254 0.0382,-15.01495 c 0.0189,-8.25815 0.0765,-15.06883 0.11451,-15.13498 0.0382,-0.0729 1.04949,-0.8779 2.25755,-1.80133 l 2.19648,-1.68297 7.28155,-0.0363 7.28155,-0.0363 0.0382,-13.4172 0.0382,-13.41724 4.57174,-4.76111 c 2.51438,-2.61821 9.39599,-9.78626 15.2922,-15.92851 l 10.72043,-11.16764 -0.0571,-4.9283 c -0.019,-2.7106 -0.0761,-25.63615 -0.0954,-50.94573 -0.0189,-25.3094 -0.0765,-46.050943 -0.0954,-46.092643 -0.0189,-0.03635 -6.36428,-4.881125 -14.07975,-10.75454 -7.71566,-5.873385 -15.72725,-11.972667 -17.80372,-13.554156 -2.07646,-1.580961 -3.89055,-2.938092 -4.03155,-3.014937 l -0.25573,-0.14571 V 29.153983 2.7989342 l 0.94837,-0.947119 c 0.52285,-0.5209136 1.64674,-1.64835166 2.49742,-2.50676986 l 1.54943,-1.56274704 22.67947,-0.036418 c 18.2216,-0.036419 22.71532,-0.017482 22.86111,0.072851 0.0954,0.054634 1.18688,1.0655086 2.41324,2.24430833 l 2.23161,2.14249277 0.0765,6.5664505 c 0.0382,3.6116221 0.0765,7.5126571 0.0765,8.6688721 l 0.004,2.102605 12.69119,-0.01768 12.69137,-0.01749 0.0382,-8.24813 c 0.0189,-4.5365213 0.0571,-8.2546933 0.0571,-8.2627082 0.0107,-0.010216 1.29945,-1.1074002 2.86492,-2.44211096 1.5647,-1.33507291 2.90707,-2.46250674 2.98245,-2.50458214 0.0954,-0.036418 10.16727,-0.091067 26.91864,-0.1092688 l 26.781253,-0.017482 2.7262,2.20951941 2.72619,2.20933829 0.0572,3.2207513 c 0.0382,1.7722065 0.0762,5.6710581 0.11452,8.6659571 l 0.0572,5.445388 12.52556,0.01768 12.52573,0.01749 0.019,-8.604397 0.019,-8.6047767 0.94837,-0.9471203 c 0.52092,-0.5209139 1.64482,-1.64835035 2.49643,-2.50656844 l 1.54944,-1.56274696 22.67945,-0.036418 c 18.22162,-0.036433 22.71516,-0.017482 22.86113,0.054635 0.0954,0.054634 1.1907,1.069152 2.4226,2.2501368 l 2.24132,2.1488684 0.0573,8.9227722 c 0.0191,4.907536 0.0573,16.991502 0.0381,26.853744 l -0.01,17.930971 -0.25569,0.145711 c -0.13353,0.07284 -1.9551,1.433428 -4.03155,3.014935 -2.07647,1.580958 -10.08808,7.680773 -17.80354,13.554185 -7.71566,5.873428 -14.05152,10.712838 -14.07995,10.754539 -0.0191,0.03635 -0.0762,20.783458 -0.0954,46.092668 -0.0191,25.30959 -0.0762,48.23495 -0.0954,50.94571 l -0.0382,4.92828 10.72043,11.1678 c 5.89642,6.14226 12.77781,13.31013 15.2922,15.92874 l 4.57178,4.76071 0.0381,13.41706 0.0381,13.41738 7.28155,0.0363 7.28154,0.0363 2.19649,1.68298 c 1.20787,0.92526 2.22396,1.73575 2.25755,1.80314 0.0381,0.0729 0.0763,6.87684 0.11455,15.13517 l 0.0381,15.01494 -1.84138,2.60236 c -1.01133,1.43163 -1.89671,2.66579 -1.96675,2.7432 -0.11455,0.14572 -6.06967,0.14572 -122.774983,0.14572 h -122.65061 z"
       id="Pawn-0-1"
       inkscape:connector-curvature="0"
       class="Pawn" />
    <path
       inkscape:connector-curvature="0"
       style="opacity:1;fill:#ffffff;fill-opacity:1;fill-rule:evenodd;stroke:none;stroke-width:0.25266159px;stroke-linecap:butt;stroke-linejoin:miter;stroke-opacity:1"
       d="m 59.964427,56.36878 c -6.17522,0.286501 -11.09312,4.523495 -11.09312,9.680354 0,4.829581 4.30004,8.834141 9.91865,9.558566 0.21753,2.078868 0.50948,4.345248 0.65257,6.570622 0.39119,6.129201 5.47818,52.088738 3.33222,54.191468 -2.23156,2.18667 -11.75159,0.80615 -17.62702,0.64477 -5.87237,-0.16211 -6.26736,7.1007 0,7.4233 5.33197,0.27448 11.51825,0.89867 17.94894,0.78102 0.19083,1.09645 0.353,2.35392 0.46178,3.73311 0.39116,5.00015 -6.26298,10.16627 -9.00502,13.06955 -2.74183,2.90333 -2.15469,5.80367 0.78235,6.44882 2.88876,0.63437 1.36626,1.45036 1.36626,2.90198 0,1.45164 -0.43124,3.71636 1.76695,5.6463 2.9378,2.58066 -0.0189,4.56862 0.19082,8.5482 0.17173,3.07028 2.83572,5.41696 9.005,7.35164 3.67113,11.57471 1.73453,25.58297 1.18305,31.04026 18.21417,-2.25813 62.862893,-11.13022 67.759233,-13.54966 -0.78425,-5.00017 -4.50289,-22.74497 -3.91515,-25.80954 0.48466,-2.52417 -0.88541,-4.61097 -3.02788,-4.90826 -0.25188,-6.22753 2.09287,-10.1112 8.11751,-15.89989 8.08487,-7.76816 5.1984,-22.86167 -0.29576,-25.67342 1.8452,-24.17816 -7.96506,-51.741735 -11.05819,-62.230969 -3.32955,-11.290649 -5.28829,-13.066093 -8.81361,-12.904788 -2.47164,0.112862 -28.913453,1.416321 -45.242333,2.851827 -0.13353,-5.242932 -5.35508,-9.465444 -11.75429,-9.465426 -0.0762,0 -0.15267,-0.0012 -0.22708,0 -0.0571,7.85e-4 -0.0954,-0.0013 -0.15267,0 -0.0189,6.39e-4 -0.0382,-7.66e-4 -0.0765,0 -0.019,7.28e-4 -0.0382,-8.55e-4 -0.0762,0 -0.0189,8.55e-4 -0.0382,-10e-4 -0.0762,0 -0.0189,0.0011 -0.0382,-0.0011 -0.0762,0 z m 52.498493,10.862659 c 0.0193,-6.68e-4 0.0382,3.4e-4 0.0762,0 0.0954,-0.0013 0.19083,4.62e-4 0.27859,0 3.72913,-0.01811 5.48865,0.188709 5.97733,0.429848 0.97889,0.483951 3.52858,5.803489 2.15775,6.771256 -1.37006,0.967701 -18.60994,0.809065 -19.39342,2.099413 -0.78425,1.290456 2.74012,50.966494 3.91517,52.256854 1.17542,1.29027 25.07441,-2.25756 25.85789,-1.28972 0.78426,0.9677 1.17543,5.81077 -0.39117,6.45595 -1.56659,0.64531 -12.14641,1.76909 -29.77307,3.38202 -17.626633,1.61302 -29.772683,2.42584 -30.555963,1.6194 -0.78425,-0.80651 -1.37195,-4.35929 0.3912,-6.13354 1.76312,-1.77422 23.50795,-1.4502 25.07473,-3.22442 1.56662,-1.77422 -2.7487,-51.937582 -4.31547,-52.74406 -1.56661,-0.806505 -24.08215,3.708462 -25.64895,2.901957 -1.56661,-0.806478 -2.35411,-6.609627 -0.98269,-7.416118 1.37195,-0.806493 12.92969,-2.908491 29.77303,-4.198893 8.026713,-0.614896 13.599863,-0.863495 17.348633,-0.90284 0.0762,-7.9e-4 0.15268,-0.0041 0.21755,-0.0068 z m -45.381453,28.81899 c 16.45142,1.774206 15.0802,20.803751 0.78236,22.577981 -0.97889,-7.25826 -2.54568,-18.70691 -0.78236,-22.577981 z m 29.0159,47.284071 c 0,0 -19.62239,42.10642 -20.95064,44.04535 -1.53991,2.24671 -6.00634,1.29207 -8.06526,0.44423 -2.74202,-1.12907 -3.12823,-4.03349 -2.14895,-5.32387 0.9789,-1.29044 0.58771,-2.73655 -0.39117,-4.02693 -0.97888,-1.29025 0.58197,-3.06629 2.14896,-4.03407 1.56661,-0.9677 3.91935,-4.51707 4.11532,-5.96873 0.19656,-1.45164 -4.4935,-0.34588 -9.20514,-1.45455 -4.28118,-1.00742 1.34524,-5.94577 5.22891,-9.21466 1.19261,1.20484 2.78574,2.67183 3.58468,2.76582 1.37198,0.16212 15.2733,-4.19097 15.86084,-5.80394 0.51902,-1.42577 -13.79946,-4.36733 -17.13109,-5.03002 -0.2061,-0.58084 -0.33965,-1.16588 -0.29576,-1.74835 0.0953,-1.34075 0.62777,-2.15568 1.74024,-3.15276 5.5516,-0.33293 15.22405,-0.90085 25.50965,-1.49754 z m 17.383553,12.60384 c 0.008,-8.8e-4 0.0182,6.7e-4 0.0192,0 0.001,-3e-5 0.008,0 0.008,0 0.004,9e-5 0.0142,6e-5 0.0172,0 0.001,4e-5 0.008,4e-5 0.008,0 0.008,4e-5 0.019,-1.1e-4 0.0382,0 10e-4,0 0.006,0 0.008,0 0.62396,-0.0363 1.30517,0.19235 2.07074,0.75951 4.80055,3.56239 1.19641,8.75743 0,10.64054 -1.31283,2.06733 -3.59059,4.70212 -6.36869,5.05874 -4.02698,0.5169 -3.41314,3.91571 -0.87775,4.2992 6.17482,0.93439 8.22418,-4.99914 12.72878,-2.25709 2.83648,1.72667 3.12538,4.96464 0.86056,7.2298 -3.13872,0.99561 -7.3424,2.23033 -13.00717,3.41789 -4.99881,1.04784 -14.423413,2.33644 -23.091043,3.41785 l 10.18803,-21.82559 c 6.760643,-0.47102 10.617403,-1.27752 12.511263,-4.82226 1.46548,-2.74193 2.85157,-5.71357 4.88089,-5.9186 z m 5.577,33.17551 c 0.001,2e-5 0.008,2e-5 0.008,0 0.008,2e-5 0.019,-9e-5 0.019,0 9.5e-4,0 0.006,0 0.009,0 0.001,2e-5 0.008,2e-5 0.008,0 0.008,2e-5 0.0192,-9e-5 0.0192,0 7.6e-4,0 0.006,0 0.009,0 9.6e-4,-3e-5 0.006,0 0.008,0 0.006,2e-5 0.0107,-9e-5 0.017,0 0.001,2e-5 0.008,2e-5 0.009,0 0.0954,-0.004 0.15267,-0.004 0.19082,0 1.83374,0.18868 2.3539,4.037 1.37388,5.48867 -0.9789,1.45165 -38.822923,9.54178 -39.952553,8.22579 -1.4979,-1.74524 -0.84722,-5.98702 1.36623,-6.7784 2.93591,-1.04986 33.171333,-6.64825 36.898743,-6.93606 z m 1.90626,11.28541 c 9.4e-4,0 0.008,-4e-5 0.008,0 9.6e-4,0 0.008,-4e-5 0.008,0 7.9e-4,0 0.008,-4e-5 0.009,0 7.5e-4,0 0.008,0 0.008,0 0.008,-1.1e-4 0.019,-1.8e-4 0.019,0 10e-4,2e-5 0.006,2e-5 0.009,0 0.0382,-7e-4 0.0762,0.004 0.0954,0.007 1.83374,0.18871 2.3539,4.02982 1.37386,5.48148 -0.97888,1.45164 -40.283173,10.60198 -41.527323,9.35794 -1.49791,-1.49807 -0.83766,-5.79924 1.37388,-6.77126 2.85746,-1.2551 35.360723,-7.85679 38.577873,-8.06816 7.7e-4,0 0.008,0 0.009,0 7.7e-4,5e-5 0.008,0 0.008,0 7.6e-4,-6.9e-4 0.008,-0.007 0.009,-0.007 z"
       id="path2184"
       data-darkreader-inline-fill=""
       data-darkreader-inline-stroke="" />
  </g>
</svg>
